games
…
# Adding cluster assignments to the data
clustering_data_no_outliers$cluster <- db$cluster

# Analyze the characteristics of each cluster
cluster_summary <- clustering_data_no_outliers %>%
  group_by(cluster) %>%
  summarise(
    count = n(),
    avg_global_sales = mean(Global_Sales, na.rm = TRUE),
    .groups = "drop"
  )

print(cluster_summary)

# A tibble: 204 x 3
   cluster count avg_global_sales
     <dbl> <int>            <dbl>
 1       0  2245           0.644 
 2       1     8           1.31  
 3       2     8           0.892 
 4       3   215          -0.0469
 5       4   361          -0.0593
 6       5   290          -0.0667
 7       6   336          -0.0754
 8       7    14           0.640 
 9       8   311          -0.0866
10       9     8           0.675 
# i 194 more rows
# i Use `print(n = ...)` to see more rows
…
